Handling the input matrix in CB2
…
## Parsed with column specification:
## cols(
##   gene = col_character(),
##   sgRNA = col_character(),
##   B1 = col_double(),
##   B2 = col_double(),
##   B3 = col_double(),
##   A1 = col_double(),
##   A2 = col_double(),
##   A3 = col_double()
## )

df

## # A tibble: 961 x 8
##    gene   sgRNA       B1    B2    B3    A1    A2    A3
##    <chr>  <chr>    <dbl> <dbl> <dbl> <dbl> <dbl> <dbl>
##  1 RPS19  RPS19-10 10180  9768  9406  1005  1186   911
##  2 NUP93  NUP93-4   9073  8598  8363   688   479   581
##  3 PSMD11 PSMD11-2  9408  9573  9384  1014  1196   797
##  4 RPS3A  RPS3A-3   8922  8965  8779  1266  1303  1176
##  5 PSMB3  PSMB3-3   7434  6958  6871   450   628   398
##  6 POLR2A POLR2A-5  7672  7537  7259   647   786   683
##  7 RPS8   RPS8-8    6999  6966  6775   673   665   474
##  8 RPL36  RPL36-3   5988  5893  5498   266   276   201
##  9 RPS13  RPS13-4   5763  5546  5131   187   191   196
## 10 RPS11  RPS11-2   9444  9621  8835  1900  2213  1705
## # … with 951 more rows
…
