CB2 Tutorial
…
After we realize the data quality is okay to move to the next step, then we can perform an analysis for a sgRNA-level using `

sgrna_stat <- run_estimation(cb2_count$count, df_design, "High", "Base")
sgrna_stat

## # A tibble: 25 x 19
##    sgRNA gene    n_a   n_b phat_a[,1] vhat_a[,1] phat_b[,1] vhat_b[,1]
##    <chr> <chr> <int> <int>      <dbl>      <dbl>      <dbl>      <dbl>
##  1 NEGC… NEGC…     2     2   0           0.          0.0419  0.000496 
##  2 NEGC… NEGC…     2     2   0.000734    5.39e-7     0.0225  0.000160 
##  3 NEGC… NEGC…     2     2   0           0.          0.0251  0.000369 
##  4 NEGC… NEGC…     2     2   0.000734    5.39e-7     0.0132  0.0000175
##  5 NEGC… NEGC…     2     2   0           0.          0.0320  0.0000876
##  6 PARK… PARK2     2     2   0.101       5.14e-3     0.0215  0.000224 
##  7 PARK… PARK2     2     2   0.103       3.46e-4     0.0499  0.0000707
##  8 PARK… PARK2     2     2   0.147       4.11e-3     0.0483  0.000487 
##  9 PARK… PARK2     2     2   0.181       9.53e-4     0.0432  0.0000319
## 10 PARK… PARK2     2     2   0.192       1.14e-4     0.0656  0.0000473
## # … with 15 more rows, and 11 more variables: cpm_a <dbl>, cpm_b <dbl>,
## #   logFC <dbl>, t_value[,1] <dbl>, df[,1] <dbl>, p_ts[,1] <dbl>,
## #   p_pa[,1] <dbl>, p_pb[,1] <dbl>, fdr_ts <dbl>, fdr_pa <dbl>,
## #   fdr_pb <dbl>
…
